CA_Exercises/SIM/vcd_dump.vcd
$date
    Apr 28, 2023  12:17:17
$end
$version
    TOOL:	ncsim(64)	15.20-s058
$end
$timescale
    10 ps
$end

$scope module cpu_tb $end
$var reg       1 !    clk  $end
$var reg       1 "    arst_n  $end
$var reg      64 #    addr_ext [63:0] $end
$var reg       1 $    wen_ext  $end
$var reg       1 %    ren_ext  $end
$var reg      32 &    wdata_ext [31:0] $end
$var reg      64 '    addr_ext_2 [63:0] $end
$var reg       1 (    wen_ext_2  $end
$var reg       1 )    ren_ext_2  $end
$var reg      64 *    wdata_ext_2 [63:0] $end
$var wire     32 +    rdata_ext [31:0] $end
$var wire     64 ,    rdata_ext_2 [63:0] $end
$var reg       1 -    enable  $end
$var integer  32 .    half_clock_period_ns  $end
$var integer  32 /    imem_cnt  $end
$var integer  32 0    dmem_cnt  $end
$var parameter 32 1    IMEM_UNIT [31:0] $end
$var parameter 32 2    DMEM_UNIT [31:0] $end
$var integer  32 3    counter  $end
$var parameter 32 4    CASE_N_MAX [31:0] $end

$scope module dut $end
$var wire      1 5    clk  $end
$var wire      1 6    arst_n  $end
$var wire      1 7    enable  $end
$var wire     64 8    addr_ext [63:0] $end
$var wire      1 9    wen_ext  $end
$var wire      1 :    ren_ext  $end
$var wire     32 ;    wdata_ext [31:0] $end
$var wire     64 <    addr_ext_2 [63:0] $end
$var wire      1 =    wen_ext_2  $end
$var wire      1 >    ren_ext_2  $end
$var wire     64 ?    wdata_ext_2 [63:0] $end
$var wire     32 +    rdata_ext [31:0] $end
$var wire     64 ,    rdata_ext_2 [63:0] $end
$var wire      1 @    zero_flag  $end
$var wire     64 A    branch_pc [63:0] $end
$var wire     64 B    updated_pc [63:0] $end
$var wire     64 C    current_pc [63:0] $end
$var wire     64 D    jump_pc [63:0] $end
$var wire     32 E    instruction [31:0] $end
$var wire      2 F    alu_op [1:0] $end
$var wire      4 G    alu_control [3:0] $end
$var wire      1 H    reg_dst  $end
$var wire      1 I    branch  $end
$var wire      1 J    mem_read  $end
$var wire      1 K    mem_2_reg  $end
$var wire      1 L    mem_write  $end
$var wire      1 M    alu_src  $end
$var wire      1 N    reg_write  $end
$var wire      1 O    jump  $end
$var wire      5 P    regfile_waddr [4:0] $end
$var wire     64 Q    regfile_wdata [63:0] $end
$var wire     64 R    mem_data [63:0] $end
$var wire     64 S    alu_out [63:0] $end
$var wire     64 T    regfile_rdata_1 [63:0] $end
$var wire     64 U    regfile_rdata_2 [63:0] $end
$var wire     64 V    alu_operand_2 [63:0] $end
$var wire     64 W    immediate_extended [63:0] $end

$scope module immediate_extend_u $end
$var wire     32 E    instruction [31:0] $end
$var reg      64 X    immediate_extended [63:0] $end
$var wire     25 Y    instr [31:7] $end
$var wire      7 Z    opcode [6:0] $end
$var reg       3 [    instr_type [2:0] $end
$var parameter 32 \    ALU_R [31:0] $end
$var parameter 32 ]    ALU_I [31:0] $end
$var parameter 32 ^    BRANCH_EQ [31:0] $end
$var parameter 32 _    JUMP [31:0] $end
$var parameter 32 `    LOAD_WORD [31:0] $end
$var parameter 32 a    STORE_WORD [31:0] $end
$upscope $end


$scope module program_counter $end
$var parameter 32 b    DATA_W [31:0] $end
$var wire      1 5    clk  $end
$var wire      1 6    arst_n  $end
$var wire      1 7    enable  $end
$var wire     64 A    branch_pc [63:0] $end
$var wire     64 D    jump_pc [63:0] $end
$var wire      1 @    zero_flag  $end
$var wire      1 I    branch  $end
$var wire      1 O    jump  $end
$var reg      64 c    updated_pc [63:0] $end
$var reg      64 d    current_pc [63:0] $end
$var parameter 64 e    PC_INCREASE [63:0] $end
$var wire     64 f    pc_r [63:0] $end
$var wire     64 g    next_pc [63:0] $end
$var wire     64 h    next_pc_i [63:0] $end
$var reg       1 i    pc_src  $end

$scope module mux_branch $end
$var parameter 32 j    DATA_W [31:0] $end
$var wire     64 A    input_a [63:0] $end
$var wire     64 k    input_b [63:0] $end
$var wire      1 l    select_a  $end
$var reg      64 m    mux_out [63:0] $end
$upscope $end


$scope module mux_jump $end
$var parameter 32 n    DATA_W [31:0] $end
$var wire     64 D    input_a [63:0] $end
$var wire     64 h    input_b [63:0] $end
$var wire      1 O    select_a  $end
$var reg      64 o    mux_out [63:0] $end
$upscope $end


$scope module pc_register $end
$var parameter 32 p    DATA_W [31:0] $end
$var parameter 32 q    PRESET_VAL [31:0] $end
$var wire      1 5    clk  $end
$var wire      1 6    arst_n  $end
$var wire      1 7    en  $end
$var wire     64 g    din [63:0] $end
$var wire     64 r    dout [63:0] $end
$var reg      64 s    r [63:0] $end
$var reg      64 t    nxt [63:0] $end
$upscope $end

$upscope $end


$scope module instruction_memory $end
$var parameter 32 u    ADDR_W [31:0] $end
$var wire      1 5    clk  $end
$var wire     64 C    addr [63:0] $end
$var wire     64 8    addr_ext [63:0] $end
$var wire      1 v    wen  $end
$var wire      1 9    wen_ext  $end
$var wire      1 w    ren  $end
$var wire      1 :    ren_ext  $end
$var wire     32 x    wdata [31:0] $end
$var wire     32 ;    wdata_ext [31:0] $end
$var reg      32 y    rdata [31:0] $end
$var reg      32 z    rdata_ext [31:0] $end
$var parameter 32 {    SEL_W [31:0] $end
$var parameter 32 |    MACRO_DEPTH [31:0] $end
$var parameter 32 }    N_MEMS [31:0] $end
$var reg       7 ~    addr_i [6:0] $end
$var reg       7 !!   addr_ext_i [6:0] $end
$var reg       1 "!   mem_sel [0:0] $end
$var reg       1 #!   mem_sel_ext [0:0] $end
$var wire     32 $!   data_i [0] $end
$var wire     32 %!   data_ext_i [0] $end
$var reg       1 &!   web0  $end
$var reg       1 '!   web1  $end
$var reg       1 (!   csb0  $end
$var reg       1 )!   csb1  $end

$scope begin process_for_mem[0] $end
$var parameter 32 *!   index_depth [31:0] $end

$scope module dram_inst $end
$var parameter 32 +!   DATA_WIDTH  $end
$var parameter 32 ,!   ADDR_WIDTH  $end
$var parameter 32 -!   RAM_DEPTH  $end
$var parameter 32 .!   DELAY  $end
$var parameter 32 /!   VERBOSE  $end
$var parameter 32 0!   T_HOLD  $end
$var wire      1 1!   clk0  $end
$var wire      1 2!   csb0  $end
$var wire      1 3!   web0  $end
$var wire      7 4!   addr0 [6:0] $end
$var wire     32 x    din0 [31:0] $end
$var reg      32 5!   dout0 [31:0] $end
$var wire      1 6!   clk1  $end
$var wire      1 7!   csb1  $end
$var wire      1 8!   web1  $end
$var wire      7 9!   addr1 [6:0] $end
$var wire     32 ;    din1 [31:0] $end
$var reg      32 :!   dout1 [31:0] $end
$upscope $end

$upscope $end

$upscope $end


$scope module data_memory $end
$var parameter 32 ;!   ADDR_W [31:0] $end
$var wire      1 5    clk  $end
$var wire     64 S    addr [63:0] $end
$var wire     64 <    addr_ext [63:0] $end
$var wire      1 L    wen  $end
$var wire      1 =    wen_ext  $end
$var wire      1 J    ren  $end
$var wire      1 >    ren_ext  $end
$var wire     64 U    wdata [63:0] $end
$var wire     64 ?    wdata_ext [63:0] $end
$var reg      64 <!   rdata [63:0] $end
$var reg      64 =!   rdata_ext [63:0] $end
$var parameter 32 >!   SEL_W [31:0] $end
$var parameter 32 ?!   MACRO_DEPTH [31:0] $end
$var parameter 32 @!   N_MEMS [31:0] $end
$var reg       7 A!   addr_i [6:0] $end
$var reg       7 B!   addr_ext_i [6:0] $end
$var reg       1 C!   mem_sel [0:0] $end
$var reg       1 D!   mem_sel_ext [0:0] $end
$var wire     64 E!   data_i [0] $end
$var wire     64 F!   data_ext_i [0] $end
$var reg       1 G!   web0  $end
$var reg       1 H!   web1  $end
$var reg       1 I!   csb0  $end
$var reg       1 J!   csb1  $end

$scope begin process_for_mem[0] $end
$var parameter 32 K!   index_depth [31:0] $end

$scope module spad_inst $end
$var parameter 32 L!   DATA_WIDTH  $end
$var parameter 32 M!   ADDR_WIDTH  $end
$var parameter 32 N!   RAM_DEPTH  $end
$var parameter 32 O!   DELAY  $end
$var parameter 32 P!   VERBOSE  $end
$var parameter 32 Q!   T_HOLD  $end
$var wire      1 R!   clk0  $end
$var wire      1 S!   csb0  $end
$var wire      1 T!   web0  $end
$var wire      7 U!   addr0 [6:0] $end
$var wire     64 U    din0 [63:0] $end
$var reg      64 V!   dout0 [63:0] $end
$var wire      1 W!   clk1  $end
$var wire      1 X!   csb1  $end
$var wire      1 Y!   web1  $end
$var wire      7 Z!   addr1 [6:0] $end
$var wire     64 ?    din1 [63:0] $end
$var reg      64 [!   dout1 [63:0] $end
$upscope $end

$upscope $end

$upscope $end


$scope module control_unit $end
$var wire      7 \!   opcode [6:0] $end
$var reg       2 ]!   alu_op [1:0] $end
$var reg       1 ^!   reg_dst  $end
$var reg       1 _!   branch  $end
$var reg       1 `!   mem_read  $end
$var reg       1 a!   mem_2_reg  $end
$var reg       1 b!   mem_write  $end
$var reg       1 c!   alu_src  $end
$var reg       1 d!   reg_write  $end
$var reg       1 e!   jump  $end
$var parameter 32 f!   ALU_R [31:0] $end
$var parameter 32 g!   ALU_I [31:0] $end
$var parameter 32 h!   BRANCH_EQ [31:0] $end
$var parameter 32 i!   JUMP [31:0] $end
$var parameter 32 j!   LOAD [31:0] $end
$var parameter 32 k!   STORE [31:0] $end
$var parameter  2 l!   ADD_OPCODE [1:0] $end
$var parameter  2 m!   SUB_OPCODE [1:0] $end
$var parameter  2 n!   R_TYPE_OPCODE [1:0] $end
$upscope $end


$scope module register_file $end
$var parameter 32 o!   DATA_W [31:0] $end
$var wire      1 5    clk  $end
$var wire      1 6    arst_n  $end
$var wire      1 N    reg_write  $end
$var wire      5 p!   raddr_1 [4:0] $end
$var wire      5 q!   raddr_2 [4:0] $end
$var wire      5 r!   waddr [4:0] $end
$var wire     64 Q    wdata [63:0] $end
$var reg      64 s!   rdata_1 [63:0] $end
$var reg      64 t!   rdata_2 [63:0] $end
$var parameter 32 u!   N_REG [31:0] $end
$var integer  32 v!   idx  $end
$upscope $end


$scope module alu_ctrl $end
$var wire      2 w!   func7_5_0 [1:0] $end
$var wire      3 x!   func3 [2:0] $end
$var wire      2 F    alu_op [1:0] $end
$var reg       4 y!   alu_control [3:0] $end
$var parameter  2 z!   ADD_OPCODE [1:0] $end
$var parameter  2 {!   SUB_OPCODE [1:0] $end
$var parameter  2 |!   R_TYPE_OPCODE [1:0] $end
$var parameter  4 }!   AND_OP [3:0] $end
$var parameter  4 ~!   OR_OP [3:0] $end
$var parameter  4 !"   ADD_OP [3:0] $end
$var parameter  4 ""   SLL_OP [3:0] $end
$var parameter  4 #"   SRL_OP [3:0] $end
$var parameter  4 $"   SUB_OP [3:0] $end
$var parameter  4 %"   SLT_OP [3:0] $end
$var parameter  4 &"   MUL_OP [3:0] $end
$var wire      5 '"   function_field [4:0] $end
$var parameter  5 ("   FUNC_ADD [4:0] $end
$var parameter  5 )"   FUNC_SUB [4:0] $end
$var parameter  5 *"   FUNC_AND [4:0] $end
$var parameter  5 +"   FUNC_OR [4:0] $end
$var parameter  5 ,"   FUNC_SLT [4:0] $end
$var parameter  5 -"   FUNC_SLL [4:0] $end
$var parameter  5 ."   FUNC_SRL [4:0] $end
$var parameter  5 /"   FUNC_MUL [4:0] $end
$var reg       4 0"   rtype_op [3:0] $end
$upscope $end


$scope module alu_operand_mux $end
$var parameter 32 1"   DATA_W [31:0] $end
$var wire     64 W    input_a [63:0] $end
$var wire     64 U    input_b [63:0] $end
$var wire      1 M    select_a  $end
$var reg      64 2"   mux_out [63:0] $end
$upscope $end


$scope module alu $end
$var parameter 32 3"   DATA_W [31:0] $end
$var wire     64 T    alu_in_0 [63:0] $end
$var wire     64 V    alu_in_1 [63:0] $end
$var wire      4 G    alu_ctrl [3:0] $end
$var reg      64 4"   alu_out [63:0] $end
$var reg       1 5"   zero_flag  $end
$var reg       1 6"   overflow  $end
$var parameter  4 7"   AND_OP [3:0] $end
$var parameter  4 8"   OR_OP [3:0] $end
$var parameter  4 9"   ADD_OP [3:0] $end
$var parameter  4 :"   SLL_OP [3:0] $end
$var parameter  4 ;"   SRL_OP [3:0] $end
$var parameter  4 <"   SUB_OP [3:0] $end
$var parameter  4 ="   SLT_OP [3:0] $end
$var parameter  4 >"   MUL_OP [3:0] $end
$var reg      64 ?"   sub_out [63:0] $end
$var reg      64 @"   add_out [63:0] $end
$var reg      64 A"   and_out [63:0] $end
$var reg      64 B"   or_out [63:0] $end
$var reg      64 C"   nor_out [63:0] $end
$var reg      64 D"   slt_out [63:0] $end
$var reg      64 E"   sll_out [63:0] $end
$var reg      64 F"   srl_out [63:0] $end
$var reg      64 G"   mul_out [63:0] $end
$var reg       1 H"   overflow_add  $end
$var reg       1 I"   overflow_sub  $end
$var reg       1 J"   msb_equal_flag  $end
$upscope $end


$scope module regfile_data_mux $end
$var parameter 32 K"   DATA_W [31:0] $end
$var wire     64 R    input_a [63:0] $end
$var wire     64 S    input_b [63:0] $end
$var wire      1 K    select_a  $end
$var reg      64 L"   mux_out [63:0] $end
$upscope $end


$scope module branch_unit $end
$var parameter 32 M"   DATA_W [31:0] $end
$var wire     64 B    updated_pc [63:0] $end
$var wire     64 W    immediate_extended [63:0] $end
$var reg      64 N"   branch_pc [63:0] $end
$var reg      64 O"   jump_pc [63:0] $end
$var parameter 64 P"   PC_INCREASE [63:0] $end
$upscope $end

$upscope $end


$scope task debug_regfile $end
$var integer  32 Q"   i  $end
$upscope $end


$scope task test_basic $end
$var integer  32 R"   i  $end
$var integer  32 S"   j  $end
$upscope $end


$scope task test_mult_4 $end
$var integer  32 T"   i  $end
$var integer  32 U"   j  $end
$var reg       1 V"   error_flag  $end
$upscope $end


$scope task cnt_and_wait $end
$var reg      32 W"   stop_counter [31:0] $end
$var integer  32 X"   cnt_cycles  $end
$upscope $end


$scope task wait_for_STOP_instruction $end
$var integer  32 Y"   counter_result  $end
$upscope $end

$upscope $end


$scope module reg_arstn $end
$var parameter 32 Z"   DATA_W [31:0] $end
$var parameter 32 ["   PRESET_VAL [31:0] $end
$var wire      1 \"   clk  $end
$var wire      1 ]"   arst_n  $end
$var wire     20 ^"   din [19:0] $end
$var wire     20 _"   dout [19:0] $end
$var reg      20 `"   r [19:0] $end
$var reg      20 a"   nxt [19:0] $end
$upscope $end

$enddefinitions $end
$dumpvars
b0 ["
b10100 Z"
b100 P"
b1000000 M"
b1000000 K"
b1000 >"
b111 ="
b110 <"
b100 ;"
b11 :"
b10 9"
b1 8"
b0 7"
b1000000 3"
b1000000 1"
b1000 /"
b101 ."
b1 -"
b10 ,"
b110 +"
b111 *"
b10000 )"
b0 ("
b1000 &"
b111 %"
b110 $"
b100 #"
b11 ""
b10 !"
b1 ~!
b0 }!
b10 |!
b1 {!
b0 z!
b100000 u!
b1000000 o!
b10 n!
b1 m!
b0 l!
b100011 k!
b11 j!
b1101111 i!
b1100011 h!
b10011 g!
b110011 f!
b1 Q!
b1 P!
b0 O!
b10000000 N!
b111 M!
b1000000 L!
b0 K!
b1 @!
b10000000 ?!
b0 >!
b1010 ;!
b1 0!
b1 /!
b0 .!
b10000000 -!
b111 ,!
b100000 +!
b0 *!
b1 }
b10000000 |
b0 {
b1001 u
b0 q
b1000000 p
b1000000 n
b1000000 j
b100 e
b1000000 b
b100011 a
b11 `
b1101111 _
b1100011 ^
b10011 ]
b110011 \
b10000000 4
b10000000 2
b10000000 1
0!
0"
b0 #
0$
0%
b0 &
b0 '
0(
0)
b0 *
bx +
bx ,
0-
b110010 .
bx /
bx 0
bx 3
05
06
07
b0 8
09
0:
b0 ;
b0 <
0=
0>
b0 ?
x@
bx A
b100 B
b0 C
bx D
bx E
bx F
bx G
xH
xI
xJ
xK
xL
xM
xN
xO
bz P
bx Q
bx R
bx S
bx T
bx U
bx V
bx W
bx X
bx Y
bx Z
bx [
b100 c
b0 d
bz f
b100 g
b100 h
xi
b100 k
xl
b100 m
b100 o
b0 r
b0 s
b0 t
0v
1w
b0 x
bx y
bx z
b0 ~
b0 !!
0"!
0#!
bx $!
bx %!
1&!
1'!
0(!
1)!
11!
02!
13!
b0 4!
bx 5!
16!
17!
18!
b0 9!
bx :!
bx <!
bx =!
bx A!
b0 B!
0C!
0D!
bx E!
bx F!
xG!
1H!
xI!
1J!
1R!
xS!
xT!
bx U!
bx V!
1W!
1X!
1Y!
b0 Z!
bx [!
bx \!
bx ]!
x^!
x_!
x`!
xa!
xb!
xc!
xd!
xe!
bx p!
bx q!
bx r!
bx s!
bx t!
b100000 v!
bx w!
bx x!
bx y!
bx '"
bx 0"
bx 2"
bx 4"
x5"
x6"
bx ?"
bx @"
bx A"
bx B"
bx C"
bx D"
bx E"
bx F"
bx G"
xH"
xI"
xJ"
bx L"
bx N"
bx O"
bx Q"
bx R"
bx S"
bx T"
bx U"
xV"
b1010 W"
b0 X"
bx Y"
z\"
z]"
bz ^"
bx _"
bx `"
bx a"
$end
#5000
1!
15
b0 v!
b1 v!
b10 v!
b11 v!
b100 v!
b101 v!
b110 v!
b111 v!
b1000 v!
b1001 v!
b1010 v!
b1011 v!
b1100 v!
b1101 v!
b1110 v!
b1111 v!
b10000 v!
b10001 v!
b10010 v!
b10011 v!
b10100 v!
b10101 v!
b10110 v!
b10111 v!
b11000 v!
b11001 v!
b11010 v!
b11011 v!
b11100 v!
b11101 v!
b11110 v!
b11111 v!
b100000 v!
06!
01!
0W!
0R!
#10000
0!
b1 X"
05
16!
11!
1W!
1R!
#15000
1!
15
06!
01!
0W!
0R!
#20000
0!
b10 X"
05
16!
11!
1W!
1R!
#25000
1!
15
06!
01!
0W!
0R!
#30000
0!
b11 X"
05
16!
11!
1W!
1R!
#35000
1!
15
06!
01!
0W!
0R!
#40000
0!
b100 X"
05
16!
11!
1W!
1R!
#45000
1!
15
06!
01!
0W!
0R!
#50000
0!
b101 X"
05
16!
11!
1W!
1R!
#55000
1!
15
06!
01!
0W!
0R!
#60000
0!
b110 X"
05
16!
11!
1W!
1R!
#65000
1!
15
06!
01!
0W!
0R!
#70000
0!
b111 X"
05
16!
11!
1W!
1R!
#75000
1!
15
06!
01!
0W!
0R!
#80000
0!
b1000 X"
05
16!
11!
1W!
1R!
#85000
1!
15
06!
01!
0W!
0R!
#90000
0!
b1001 X"
05
16!
11!
1W!
1R!
#95000
1!
15
06!
01!
0W!
0R!
#100000
0!
b1010 X"
1"
b0 0
b1 0
b10 0
b11 0
b100 0
b101 0
b110 0
b111 0
b1000 0
b1001 0
b1010 0
b1011 0
b1100 0
b1101 0
b1110 0
b1111 0
b10000 0
b10001 0
b10010 0
b10011 0
b10100 0
b10101 0
b10110 0
b10111 0
b11000 0
b11001 0
b11010 0
b11011 0
b11100 0
b11101 0
b11110 0
b11111 0
b100000 0
b100001 0
b100010 0
b100011 0
b100100 0
b100101 0
b100110 0
b100111 0
b101000 0
b101001 0
b101010 0
b101011 0
b101100 0
b101101 0
b101110 0
b101111 0
b110000 0
b110001 0
b110010 0
b110011 0
b110100 0
b110101 0
b110110 0
b110111 0
b111000 0
b111001 0
b111010 0
b111011 0
b111100 0
b111101 0
b111110 0
b111111 0
b1000000 0
b1000001 0
b1000010 0
b1000011 0
b1000100 0
b1000101 0
b1000110 0
b1000111 0
b1001000 0
b1001001 0
b1001010 0
b1001011 0
b1001100 0
b1001101 0
b1001110 0
b1001111 0
b1010000 0
b1010001 0
b1010010 0
b1010011 0
b1010100 0
b1010101 0
b1010110 0
b1010111 0
b1011000 0
b1011001 0
b1011010 0
b1011011 0
b1011100 0
b1011101 0
b1011110 0
b1011111 0
b1100000 0
b1100001 0
b1100010 0
b1100011 0
b1100100 0
b1100101 0
b1100110 0
b1100111 0
b1101000 0
b1101001 0
b1101010 0
b1101011 0
b1101100 0
b1101101 0
b1101110 0
b1101111 0
b1110000 0
b1110001 0
b1110010 0
b1110011 0
b1110100 0
b1110101 0
b1110110 0
b1110111 0
b1111000 0
b1111001 0
b1111010 0
b1111011 0
b1111100 0
b1111101 0
b1111110 0
b1111111 0
b10000000 0
b0 X"
16
05
16!
11!
1W!
1R!
#105000
1!
15
b1 v!
b10 v!
b11 v!
b100 v!
b101 v!
b110 v!
b111 v!
b1000 v!
b1001 v!
b1010 v!
b1011 v!
b1100 v!
b1101 v!
b1110 v!
b1111 v!
b10000 v!
b10001 v!
b10010 v!
b10011 v!
b10100 v!
b10101 v!
b10110 v!
b10111 v!
b11000 v!
b11001 v!
b11010 v!
b11011 v!
b11100 v!
b11101 v!
b11110 v!
b11111 v!
b100000 v!
06!
01!
0W!
0R!
#110000
0!
b1 X"
05
16!
11!
1W!
1R!
#115000
1!
15
06!
01!
0W!
0R!
#120000
0!
b10 X"
05
16!
11!
1W!
1R!
#125000
1!
15
06!
01!
0W!
0R!
#130000
0!
b11 X"
05
16!
11!
1W!
1R!
#135000
1!
15
06!
01!
0W!
0R!
#140000
0!
b100 X"
05
16!
11!
1W!
1R!
#145000
1!
15
06!
01!
0W!
0R!
#150000
0!
b101 X"
05
16!
11!
1W!
1R!
#155000
1!
15
06!
01!
0W!
0R!
#160000
0!
b110 X"
05
16!
11!
1W!
1R!
#165000
1!
15
06!
01!
0W!
0R!
#170000
0!
b111 X"
05
16!
11!
1W!
1R!
#175000
1!
15
06!
01!
0W!
0R!
#180000
0!
b1000 X"
05
16!
11!
1W!
1R!
#185000
1!
15
06!
01!
0W!
0R!
#190000
0!
b1001 X"
05
16!
11!
1W!
1R!
#195000
1!
15
06!
01!
0W!
0R!
#200000
0!
b1010 X"
b0 0
1(
b1 *
b1 ?
1=
05
0H!
0J!
0X!
0Y!
16!
11!
1W!
1R!
#205000
1!
b1 0
15
06!
01!
0W!
0R!
#210000
0!
b10 *
b1000 '
b1000 <
b10 ?
05
b1 B!
b1 Z!
16!
11!
1W!
1R!
#215000
1!
b10 0
15
06!
01!
0W!
0R!
#220000
0!
b11 *
b10000 '
b10000 <
b11 ?
05
b10 B!
b10 Z!
16!
11!
1W!
1R!
#225000
1!
b11 0
15
06!
01!
0W!
0R!
#230000
0!
b100 *
b11000 '
b11000 <
b100 ?
05
b11 B!
b11 Z!
16!
11!
1W!
1R!
#235000
1!
b100 0
15
06!
01!
0W!
0R!
#240000
0!
b101 *
b100000 '
b100000 <
b101 ?
05
b100 B!
b100 Z!
16!
11!
1W!
1R!
#245000
1!
b101 0
15
06!
01!
0W!
0R!
#250000
0!
b110 *
b101000 '
b101000 <
b110 ?
05
b101 B!
b101 Z!
16!
11!
1W!
1R!
#255000
1!
b110 0
15
06!
01!
0W!
0R!
#260000
0!
b111 *
b110000 '
b110000 <
b111 ?
05
b110 B!
b110 Z!
16!
11!
1W!
1R!
#265000
1!
b111 0
15
06!
01!
0W!
0R!
#270000
0!
b1000 *
b111000 '
b111000 <
b1000 ?
05
b111 B!
b111 Z!
16!
11!
1W!
1R!
#275000
1!
b1000 0
15
06!
01!
0W!
0R!
#280000
0!
b1001 *
b1000000 '
b1000000 <
b1001 ?
05
b1000 B!
b1000 Z!
16!
11!
1W!
1R!
#285000
1!
b1001 0
15
06!
01!
0W!
0R!
#290000
0!
b1010 *
b1001000 '
b1001000 <
b1010 ?
05
b1001 B!
b1001 Z!
16!
11!
1W!
1R!
#295000
1!
b1010 0
15
06!
01!
0W!
0R!
#300000
0!
b0 *
b1010000 '
b1010000 <
b0 ?
05
b1010 B!
b1010 Z!
16!
11!
1W!
1R!
#305000
1!
b1011 0
15
06!
01!
0W!
0R!
#310000
0!
b1011000 '
b1011000 <
05
b1011 B!
b1011 Z!
16!
11!
1W!
1R!
#315000
1!
b1100 0
15
06!
01!
0W!
0R!
#320000
0!
b1100000 '
b1100000 <
05
b1100 B!
b1100 Z!
16!
11!
1W!
1R!
#325000
1!
b1101 0
15
06!
01!
0W!
0R!
#330000
0!
b1101000 '
b1101000 <
05
b1101 B!
b1101 Z!
16!
11!
1W!
1R!
#335000
1!
b1110 0
15
06!
01!
0W!
0R!
#340000
0!
b1110000 '
b1110000 <
05
b1110 B!
b1110 Z!
16!
11!
1W!
1R!
#345000
1!
b1111 0
15
06!
01!
0W!
0R!
#350000
0!
b1111000 '
b1111000 <
05
b1111 B!
b1111 Z!
16!
11!
1W!
1R!
#355000
1!
b10000 0
15
06!
01!
0W!
0R!
#360000
0!
b10000000 '
b10000000 <
05
b10000 B!
b10000 Z!
16!
11!
1W!
1R!
#365000
1!
b10001 0
15
06!
01!
0W!
0R!
#370000
0!
b10001000 '
b10001000 <
05
b10001 B!
b10001 Z!
16!
11!
1W!
1R!
#375000
1!
b10010 0
15
06!
01!
0W!
0R!
#380000
0!
b10010000 '
b10010000 <
05
b10010 B!
b10010 Z!
16!
11!
1W!
1R!
#385000
1!
b10011 0
15
06!
01!
0W!
0R!
#390000
0!
b10011000 '
b10011000 <
05
b10011 B!
b10011 Z!
16!
11!
1W!
1R!
#395000
1!
b10100 0
15
06!
01!
0W!
0R!
#400000
0!
b10100000 '
b10100000 <
05
b10100 B!
b10100 Z!
16!
11!
1W!
1R!
#405000
1!
b10101 0
15
06!
01!
0W!
0R!
#410000
0!
b10101000 '
b10101000 <
05
b10101 B!
b10101 Z!
16!
11!
1W!
1R!
#415000
1!
b10110 0
15
06!
01!
0W!
0R!
#420000
0!
b10110000 '
b10110000 <
05
b10110 B!
b10110 Z!
16!
11!
1W!
1R!
#425000
1!
b10111 0
15
06!
01!
0W!
0R!
#430000
0!
b10111000 '
b10111000 <
05
b10111 B!
b10111 Z!
16!
11!
1W!
1R!
#435000
1!
b11000 0
15
06!
01!
0W!
0R!
#440000
0!
b11000000 '
b11000000 <
05
b11000 B!
b11000 Z!
16!
11!
1W!
1R!
#445000
1!
b11001 0
15
06!
01!
0W!
0R!
#450000
0!
b11001000 '
b11001000 <
05
b11001 B!
b11001 Z!
16!
11!
1W!
1R!
#455000
1!
b11010 0
15
06!
01!
0W!
0R!
#460000
0!
b11010000 '
b11010000 <
05
b11010 B!
b11010 Z!
16!
11!
1W!
1R!
#465000
1!
b11011 0
15
06!
01!
0W!
0R!
#470000
0!
b11011000 '
b11011000 <
05
b11011 B!
b11011 Z!
16!
11!
1W!
1R!
#475000
1!
b11100 0
15
06!
01!
0W!
0R!
#480000
0!
b11100000 '
b11100000 <
05
b11100 B!
b11100 Z!
16!
11!
1W!
1R!
#485000
1!
b11101 0
15
06!
01!
0W!
0R!
#490000
0!
b11101000 '
b11101000 <
05
b11101 B!
b11101 Z!
16!
11!
1W!
1R!
#495000
1!
b11110 0
15
06!
01!
0W!
0R!
#500000
0!
b11110000 '
b11110000 <
05
b11110 B!
b11110 Z!
16!
11!
1W!
1R!
#505000
1!
b11111 0
15
06!
01!
0W!
0R!
#510000
0!
b11111000 '
b11111000 <
05
b11111 B!
b11111 Z!
16!
11!
1W!
1R!
#515000
1!
b100000 0
15
06!
01!
0W!
0R!
#520000
0!
b100000000 '
b100000000 <
05
b100000 B!
b100000 Z!
16!
11!
1W!
1R!
#525000
1!
b100001 0
15
06!
01!
0W!
0R!
#530000
0!
b100001000 '
b100001000 <
05
b100001 B!
b100001 Z!
16!
11!
1W!
1R!
#535000
1!
b100010 0
15
06!
01!
0W!
0R!
#540000
0!
b100010000 '
b100010000 <
05
b100010 B!
b100010 Z!
16!
11!
1W!
1R!
#545000
1!
b100011 0
15
06!
01!
0W!
0R!
#550000
0!
b100011000 '
b100011000 <
05
b100011 B!
b100011 Z!
16!
11!
1W!
1R!
#555000
1!
b100100 0
15
06!
01!
0W!
0R!
#560000
0!
b100100000 '
b100100000 <
05
b100100 B!
b100100 Z!
16!
11!
1W!
1R!
#565000
1!
b100101 0
15
06!
01!
0W!
0R!
#570000
0!
b100101000 '
b100101000 <
05
b100101 B!
b100101 Z!
16!
11!
1W!
1R!
#575000
1!
b100110 0
15
06!
01!
0W!
0R!
#580000
0!
b100110000 '
b100110000 <
05
b100110 B!
b100110 Z!
16!
11!
1W!
1R!
#585000
1!
b100111 0
15
06!
01!
0W!
0R!
#590000
0!
b100111000 '
b100111000 <
05
b100111 B!
b100111 Z!
16!
11!
1W!
1R!
#595000
1!
b101000 0
15
06!
01!
0W!
0R!
#600000
0!
b101000000 '
b101000000 <
05
b101000 B!
b101000 Z!
16!
11!
1W!
1R!
#605000
1!
b101001 0
15
06!
01!
0W!
0R!
#610000
0!
b101001000 '
b101001000 <
05
b101001 B!
b101001 Z!
16!
11!
1W!
1R!
#615000
1!
b101010 0
15
06!
01!
0W!
0R!
#620000
0!
b101010000 '
b101010000 <
05
b101010 B!
b101010 Z!
16!
11!
1W!
1R!
#625000
1!
b101011 0
15
06!
01!
0W!
0R!
#630000
0!
b101011000 '
b101011000 <
05
b101011 B!
b101011 Z!
16!
11!
1W!
1R!
#635000
1!
b101100 0
15
06!
01!
0W!
0R!
#640000
0!
b101100000 '
b101100000 <
05
b101100 B!
b101100 Z!
16!
11!
1W!
1R!
#645000
1!
b101101 0
15
06!
01!
0W!
0R!
#650000
0!
b101101000 '
b101101000 <
05
b101101 B!
b101101 Z!
16!
11!
1W!
1R!
#655000
1!
b101110 0
15
06!
01!
0W!
0R!
#660000
0!
b101110000 '
b101110000 <
05
b101110 B!
b101110 Z!
16!
11!
1W!
1R!
#665000
1!
b101111 0
15
06!
01!
0W!
0R!
#670000
0!
b101111000 '
b101111000 <
05
b101111 B!
b101111 Z!
16!
11!
1W!
1R!
#675000
1!
b110000 0
15
06!
01!
0W!
0R!
#680000
0!
b110000000 '
b110000000 <
05
b110000 B!
b110000 Z!
16!
11!
1W!
1R!
#685000
1!
b110001 0
15
06!
01!
0W!
0R!
#690000
0!
b110001000 '
b110001000 <
05
b110001 B!
b110001 Z!
16!
11!
1W!
1R!
#695000
1!
b110010 0
15
06!
01!
0W!
0R!
#700000
0!
b110010000 '
b110010000 <
05
b110010 B!
b110010 Z!
16!
11!
1W!
1R!
#705000
1!
b110011 0
15
06!
01!
0W!
0R!
