CA_Exercises/SIM/vcd_dump.vcd
$date
    Apr 28, 2023  11:48:24
$end
$version
    TOOL:	ncsim(64)	15.20-s058
$end
$timescale
    10 ps
$end

$scope module cpu_tb $end
$var reg       1 !    clk  $end
$var reg       1 "    arst_n  $end
$var reg      64 #    addr_ext [63:0] $end
$var reg       1 $    wen_ext  $end
$var reg       1 %    ren_ext  $end
$var reg      32 &    wdata_ext [31:0] $end
$var reg      64 '    addr_ext_2 [63:0] $end
$var reg       1 (    wen_ext_2  $end
$var reg       1 )    ren_ext_2  $end
$var reg      64 *    wdata_ext_2 [63:0] $end
$var wire     32 +    rdata_ext [31:0] $end
$var wire     64 ,    rdata_ext_2 [63:0] $end
$var reg       1 -    enable  $end
$var integer  32 .    half_clock_period_ns  $end
$var integer  32 /    imem_cnt  $end
$var integer  32 0    dmem_cnt  $end
$var parameter 32 1    IMEM_UNIT [31:0] $end
$var parameter 32 2    DMEM_UNIT [31:0] $end
$var integer  32 3    counter  $end
$var parameter 32 4    CASE_N_MAX [31:0] $end

$scope module dut $end
$var wire      1 5    clk  $end
$var wire      1 6    arst_n  $end
$var wire      1 7    enable  $end
$var wire     64 8    addr_ext [63:0] $end
$var wire      1 9    wen_ext  $end
$var wire      1 :    ren_ext  $end
$var wire     32 ;    wdata_ext [31:0] $end
$var wire     64 <    addr_ext_2 [63:0] $end
$var wire      1 =    wen_ext_2  $end
$var wire      1 >    ren_ext_2  $end
$var wire     64 ?    wdata_ext_2 [63:0] $end
$var wire     32 +    rdata_ext [31:0] $end
$var wire     64 ,    rdata_ext_2 [63:0] $end
$var wire      1 @    zero_flag  $end
$var wire     64 A    branch_pc [63:0] $end
$var wire     64 B    updated_pc [63:0] $end
$var wire     64 C    current_pc [63:0] $end
$var wire     64 D    jump_pc [63:0] $end
$var wire      1 E    instruction [31] $end
$var wire      1 F    instruction [30] $end
$var wire      1 G    instruction [29] $end
$var wire      1 H    instruction [28] $end
$var wire      1 I    instruction [27] $end
$var wire      1 J    instruction [26] $end
$var wire      1 K    instruction [25] $end
$var wire      1 L    instruction [24] $end
$var wire      1 M    instruction [23] $end
$var wire      1 N    instruction [22] $end
$var wire      1 O    instruction [21] $end
$var wire      1 P    instruction [20] $end
$var wire      1 Q    instruction [19] $end
$var wire      1 R    instruction [18] $end
$var wire      1 S    instruction [17] $end
$var wire      1 T    instruction [16] $end
$var wire      1 U    instruction [15] $end
$var wire      1 V    instruction [14] $end
$var wire      1 W    instruction [13] $end
$var wire      1 X    instruction [12] $end
$var wire      1 Y    instruction [11] $end
$var wire      1 Z    instruction [10] $end
$var wire      1 [    instruction [9] $end
$var wire      1 \    instruction [8] $end
$var wire      1 ]    instruction [7] $end
$var wire      1 ^    instruction [6] $end
$var wire      1 _    instruction [5] $end
$var wire      1 `    instruction [4] $end
$var wire      1 a    instruction [3] $end
$var wire      1 b    instruction [2] $end
$var wire      1 c    instruction [1] $end
$var wire      1 d    instruction [0] $end
$var wire      2 e    alu_op [1:0] $end
$var wire      4 f    alu_control [3:0] $end
$var wire      1 g    reg_dst  $end
$var wire      1 h    branch  $end
$var wire      1 i    mem_read  $end
$var wire      1 j    mem_2_reg  $end
$var wire      1 k    mem_write  $end
$var wire      1 l    alu_src  $end
$var wire      1 m    reg_write  $end
$var wire      1 n    jump  $end
$var wire      5 o    regfile_waddr [4:0] $end
$var wire     64 p    regfile_wdata [63:0] $end
$var wire     64 q    mem_data [63:0] $end
$var wire     64 r    alu_out [63:0] $end
$var wire     64 s    regfile_rdata_1 [63:0] $end
$var wire     64 t    regfile_rdata_2 [63:0] $end
$var wire     64 u    alu_operand_2 [63:0] $end
$var wire     64 v    immediate_extended [63:0] $end

$scope module immediate_extend_u $end
$var wire      1 E    instruction [31] $end
$var wire      1 F    instruction [30] $end
$var wire      1 G    instruction [29] $end
$var wire      1 H    instruction [28] $end
$var wire      1 I    instruction [27] $end
$var wire      1 J    instruction [26] $end
$var wire      1 K    instruction [25] $end
$var wire      1 L    instruction [24] $end
$var wire      1 M    instruction [23] $end
$var wire      1 N    instruction [22] $end
$var wire      1 O    instruction [21] $end
$var wire      1 P    instruction [20] $end
$var wire      1 Q    instruction [19] $end
$var wire      1 R    instruction [18] $end
$var wire      1 S    instruction [17] $end
$var wire      1 T    instruction [16] $end
$var wire      1 U    instruction [15] $end
$var wire      1 V    instruction [14] $end
$var wire      1 W    instruction [13] $end
$var wire      1 X    instruction [12] $end
$var wire      1 Y    instruction [11] $end
$var wire      1 Z    instruction [10] $end
$var wire      1 [    instruction [9] $end
$var wire      1 \    instruction [8] $end
$var wire      1 ]    instruction [7] $end
$var wire      1 ^    instruction [6] $end
$var wire      1 _    instruction [5] $end
$var wire      1 `    instruction [4] $end
$var wire      1 a    instruction [3] $end
$var wire      1 b    instruction [2] $end
$var wire      1 c    instruction [1] $end
$var wire      1 d    instruction [0] $end
$var reg      64 w    immediate_extended [63:0] $end
$var wire     25 x    instr [31:7] $end
$var wire      7 y    opcode [6:0] $end
$var reg       3 z    instr_type [2:0] $end
$var parameter 32 {    ALU_R [31:0] $end
$var parameter 32 |    ALU_I [31:0] $end
$var parameter 32 }    BRANCH_EQ [31:0] $end
$var parameter 32 ~    JUMP [31:0] $end
$var parameter 32 !!   LOAD_WORD [31:0] $end
$var parameter 32 "!   STORE_WORD [31:0] $end
$upscope $end


$scope module program_counter $end
$var parameter 32 #!   DATA_W [31:0] $end
$var wire      1 5    clk  $end
$var wire      1 6    arst_n  $end
$var wire      1 7    enable  $end
$var wire     64 A    branch_pc [63:0] $end
$var wire     64 D    jump_pc [63:0] $end
$var wire      1 @    zero_flag  $end
$var wire      1 h    branch  $end
$var wire      1 n    jump  $end
$var reg      64 $!   updated_pc [63:0] $end
$var reg      64 %!   current_pc [63:0] $end
$var parameter 64 &!   PC_INCREASE [63:0] $end
$var wire     64 '!   pc_r [63:0] $end
$var wire     64 (!   next_pc [63:0] $end
$var wire     64 )!   next_pc_i [63:0] $end
$var reg       1 *!   pc_src  $end

$scope module mux_branch $end
$var parameter 32 +!   DATA_W [31:0] $end
$var wire     64 A    input_a [63:0] $end
$var wire     64 ,!   input_b [63:0] $end
$var wire      1 -!   select_a  $end
$var reg      64 .!   mux_out [63:0] $end
$upscope $end


$scope module mux_jump $end
$var parameter 32 /!   DATA_W [31:0] $end
$var wire     64 D    input_a [63:0] $end
$var wire     64 )!   input_b [63:0] $end
$var wire      1 n    select_a  $end
$var reg      64 0!   mux_out [63:0] $end
$upscope $end


$scope module pc_register $end
$var parameter 32 1!   DATA_W [31:0] $end
$var parameter 32 2!   PRESET_VAL [31:0] $end
$var wire      1 5    clk  $end
$var wire      1 6    arst_n  $end
$var wire      1 7    en  $end
$var wire     64 (!   din [63:0] $end
$var wire     64 3!   dout [63:0] $end
$var reg      64 4!   r [63:0] $end
$var reg      64 5!   nxt [63:0] $end
$upscope $end

$upscope $end


$scope module instruction_memory $end
$var parameter 32 6!   ADDR_W [31:0] $end
$var wire      1 5    clk  $end
$var wire     64 C    addr [63:0] $end
$var wire     64 8    addr_ext [63:0] $end
$var wire      1 7!   wen  $end
$var wire      1 9    wen_ext  $end
$var wire      1 8!   ren  $end
$var wire      1 :    ren_ext  $end
$var wire     32 9!   wdata [31:0] $end
$var wire     32 ;    wdata_ext [31:0] $end
$var reg      32 :!   rdata [31:0] $end
$var reg      32 ;!   rdata_ext [31:0] $end
$var parameter 32 <!   SEL_W [31:0] $end
$var parameter 32 =!   MACRO_DEPTH [31:0] $end
$var parameter 32 >!   N_MEMS [31:0] $end
$var reg       7 ?!   addr_i [6:0] $end
$var reg       7 @!   addr_ext_i [6:0] $end
$var reg       1 A!   mem_sel [0:0] $end
$var reg       1 B!   mem_sel_ext [0:0] $end
$var wire     32 C!   data_i [0] $end
$var wire     32 D!   data_ext_i [0] $end
$var reg       1 E!   web0  $end
$var reg       1 F!   web1  $end
$var reg       1 G!   csb0  $end
$var reg       1 H!   csb1  $end

$scope begin process_for_mem[0] $end
$var parameter 32 I!   index_depth [31:0] $end

$scope module dram_inst $end
$var parameter 32 J!   DATA_WIDTH  $end
$var parameter 32 K!   ADDR_WIDTH  $end
$var parameter 32 L!   RAM_DEPTH  $end
$var parameter 32 M!   DELAY  $end
$var parameter 32 N!   VERBOSE  $end
$var parameter 32 O!   T_HOLD  $end
$var wire      1 P!   clk0  $end
$var wire      1 Q!   csb0  $end
$var wire      1 R!   web0  $end
$var wire      7 S!   addr0 [6:0] $end
$var wire     32 9!   din0 [31:0] $end
$var reg      32 T!   dout0 [31:0] $end
$var wire      1 U!   clk1  $end
$var wire      1 V!   csb1  $end
$var wire      1 W!   web1  $end
$var wire      7 X!   addr1 [6:0] $end
$var wire     32 ;    din1 [31:0] $end
$var reg      32 Y!   dout1 [31:0] $end
$upscope $end

$upscope $end

$upscope $end


$scope module data_memory $end
$var parameter 32 Z!   ADDR_W [31:0] $end
$var wire      1 5    clk  $end
$var wire     64 r    addr [63:0] $end
$var wire     64 <    addr_ext [63:0] $end
$var wire      1 k    wen  $end
$var wire      1 =    wen_ext  $end
$var wire      1 i    ren  $end
$var wire      1 >    ren_ext  $end
$var wire     64 t    wdata [63:0] $end
$var wire     64 ?    wdata_ext [63:0] $end
$var reg      64 [!   rdata [63:0] $end
$var reg      64 \!   rdata_ext [63:0] $end
$var parameter 32 ]!   SEL_W [31:0] $end
$var parameter 32 ^!   MACRO_DEPTH [31:0] $end
$var parameter 32 _!   N_MEMS [31:0] $end
$var reg       7 `!   addr_i [6:0] $end
$var reg       7 a!   addr_ext_i [6:0] $end
$var reg       1 b!   mem_sel [0:0] $end
$var reg       1 c!   mem_sel_ext [0:0] $end
$var wire     64 d!   data_i [0] $end
$var wire     64 e!   data_ext_i [0] $end
$var reg       1 f!   web0  $end
$var reg       1 g!   web1  $end
$var reg       1 h!   csb0  $end
$var reg       1 i!   csb1  $end

$scope begin process_for_mem[0] $end
$var parameter 32 j!   index_depth [31:0] $end

$scope module spad_inst $end
$var parameter 32 k!   DATA_WIDTH  $end
$var parameter 32 l!   ADDR_WIDTH  $end
$var parameter 32 m!   RAM_DEPTH  $end
$var parameter 32 n!   DELAY  $end
$var parameter 32 o!   VERBOSE  $end
$var parameter 32 p!   T_HOLD  $end
$var wire      1 q!   clk0  $end
$var wire      1 r!   csb0  $end
$var wire      1 s!   web0  $end
$var wire      7 t!   addr0 [6:0] $end
$var wire     64 t    din0 [63:0] $end
$var reg      64 u!   dout0 [63:0] $end
$var wire      1 v!   clk1  $end
$var wire      1 w!   csb1  $end
$var wire      1 x!   web1  $end
$var wire      7 y!   addr1 [6:0] $end
$var wire     64 ?    din1 [63:0] $end
$var reg      64 z!   dout1 [63:0] $end
$upscope $end

$upscope $end

$upscope $end


$scope module control_unit $end
$var wire      1 ^    opcode [6] $end
$var wire      1 _    opcode [5] $end
$var wire      1 `    opcode [4] $end
$var wire      1 a    opcode [3] $end
$var wire      1 b    opcode [2] $end
$var wire      1 c    opcode [1] $end
$var wire      1 d    opcode [0] $end
$var reg       2 {!   alu_op [1:0] $end
$var reg       1 |!   reg_dst  $end
$var reg       1 }!   branch  $end
$var reg       1 ~!   mem_read  $end
$var reg       1 !"   mem_2_reg  $end
$var reg       1 ""   mem_write  $end
$var reg       1 #"   alu_src  $end
$var reg       1 $"   reg_write  $end
$var reg       1 %"   jump  $end
$var parameter 32 &"   ALU_R [31:0] $end
$var parameter 32 '"   ALU_I [31:0] $end
$var parameter 32 ("   BRANCH_EQ [31:0] $end
$var parameter 32 )"   JUMP [31:0] $end
$var parameter 32 *"   LOAD [31:0] $end
$var parameter 32 +"   STORE [31:0] $end
$var parameter  2 ,"   ADD_OPCODE [1:0] $end
$var parameter  2 -"   SUB_OPCODE [1:0] $end
$var parameter  2 ."   R_TYPE_OPCODE [1:0] $end
$upscope $end


$scope module register_file $end
$var parameter 32 /"   DATA_W [31:0] $end
$var wire      1 5    clk  $end
$var wire      1 6    arst_n  $end
$var wire      1 m    reg_write  $end
$var wire      1 Q    raddr_1 [4] $end
$var wire      1 R    raddr_1 [3] $end
$var wire      1 S    raddr_1 [2] $end
$var wire      1 T    raddr_1 [1] $end
$var wire      1 U    raddr_1 [0] $end
$var wire      1 L    raddr_2 [4] $end
$var wire      1 M    raddr_2 [3] $end
$var wire      1 N    raddr_2 [2] $end
$var wire      1 O    raddr_2 [1] $end
$var wire      1 P    raddr_2 [0] $end
$var wire      1 Y    waddr [4] $end
$var wire      1 Z    waddr [3] $end
$var wire      1 [    waddr [2] $end
$var wire      1 \    waddr [1] $end
$var wire      1 ]    waddr [0] $end
$var wire     64 p    wdata [63:0] $end
$var reg      64 0"   rdata_1 [63:0] $end
$var reg      64 1"   rdata_2 [63:0] $end
$var parameter 32 2"   N_REG [31:0] $end
$var integer  32 3"   idx  $end
$upscope $end


$scope module alu_ctrl $end
$var wire      1 F    func7_5  $end
$var wire      1 V    func3 [2] $end
$var wire      1 W    func3 [1] $end
$var wire      1 X    func3 [0] $end
$var wire      2 e    alu_op [1:0] $end
$var reg       4 4"   alu_control [3:0] $end
$var parameter  2 5"   ADD_OPCODE [1:0] $end
$var parameter  2 6"   SUB_OPCODE [1:0] $end
$var parameter  2 7"   R_TYPE_OPCODE [1:0] $end
$var parameter  4 8"   AND_OP [3:0] $end
$var parameter  4 9"   OR_OP [3:0] $end
$var parameter  4 :"   ADD_OP [3:0] $end
$var parameter  4 ;"   SLL_OP [3:0] $end
$var parameter  4 <"   SRL_OP [3:0] $end
$var parameter  4 ="   SUB_OP [3:0] $end
$var parameter  4 >"   SLT_OP [3:0] $end
$var parameter  4 ?"   MUL_OP [3:0] $end
$var wire      4 @"   function_field [3:0] $end
$var parameter  4 A"   FUNC_ADD [3:0] $end
$var parameter  4 B"   FUNC_SUB [3:0] $end
$var parameter  4 C"   FUNC_AND [3:0] $end
$var parameter  4 D"   FUNC_OR [3:0] $end
$var parameter  4 E"   FUNC_SLT [3:0] $end
$var parameter  4 F"   FUNC_SLL [3:0] $end
$var parameter  4 G"   FUNC_SRL [3:0] $end
$var parameter  4 H"   FUNC_MUL [3:0] $end
$var reg       4 I"   rtype_op [3:0] $end
$upscope $end


$scope module alu_operand_mux $end
$var parameter 32 J"   DATA_W [31:0] $end
$var wire     64 v    input_a [63:0] $end
$var wire     64 t    input_b [63:0] $end
$var wire      1 l    select_a  $end
$var reg      64 K"   mux_out [63:0] $end
$upscope $end


$scope module alu $end
$var parameter 32 L"   DATA_W [31:0] $end
$var wire     64 s    alu_in_0 [63:0] $end
$var wire     64 u    alu_in_1 [63:0] $end
$var wire      4 f    alu_ctrl [3:0] $end
$var reg      64 M"   alu_out [63:0] $end
$var reg       1 N"   zero_flag  $end
$var reg       1 O"   overflow  $end
$var parameter  4 P"   AND_OP [3:0] $end
$var parameter  4 Q"   OR_OP [3:0] $end
$var parameter  4 R"   ADD_OP [3:0] $end
$var parameter  4 S"   SLL_OP [3:0] $end
$var parameter  4 T"   SRL_OP [3:0] $end
$var parameter  4 U"   SUB_OP [3:0] $end
$var parameter  4 V"   SLT_OP [3:0] $end
$var parameter  4 W"   MUL_OP [3:0] $end
$var reg      64 X"   sub_out [63:0] $end
$var reg      64 Y"   add_out [63:0] $end
$var reg      64 Z"   and_out [63:0] $end
$var reg      64 ["   or_out [63:0] $end
$var reg      64 \"   nor_out [63:0] $end
$var reg      64 ]"   slt_out [63:0] $end
$var reg      64 ^"   sll_out [63:0] $end
$var reg      64 _"   srl_out [63:0] $end
$var reg      64 `"   mul_out [63:0] $end
$var reg       1 a"   overflow_add  $end
$var reg       1 b"   overflow_sub  $end
$var reg       1 c"   msb_equal_flag  $end
$upscope $end


$scope module regfile_data_mux $end
$var parameter 32 d"   DATA_W [31:0] $end
$var wire     64 q    input_a [63:0] $end
$var wire     64 r    input_b [63:0] $end
$var wire      1 j    select_a  $end
$var reg      64 e"   mux_out [63:0] $end
$upscope $end


$scope module branch_unit $end
$var parameter 32 f"   DATA_W [31:0] $end
$var wire     64 B    updated_pc [63:0] $end
$var wire     64 v    immediate_extended [63:0] $end
$var reg      64 g"   branch_pc [63:0] $end
$var reg      64 h"   jump_pc [63:0] $end
$var parameter 64 i"   PC_INCREASE [63:0] $end
$upscope $end

$upscope $end


$scope task debug_regfile $end
$var integer  32 j"   i  $end
$upscope $end


$scope task test_basic $end
$var integer  32 k"   i  $end
$var integer  32 l"   j  $end
$upscope $end


$scope task test_mult_4 $end
$var integer  32 m"   i  $end
$var integer  32 n"   j  $end
$var reg       1 o"   error_flag  $end
$upscope $end


$scope task cnt_and_wait $end
$var reg      32 p"   stop_counter [31:0] $end
$var integer  32 q"   cnt_cycles  $end
$upscope $end


$scope task wait_for_STOP_instruction $end
$var integer  32 r"   counter_result  $end
$upscope $end

$upscope $end


$scope module reg_arstn $end
$var parameter 32 s"   DATA_W [31:0] $end
$var parameter 32 t"   PRESET_VAL [31:0] $end
$var wire      1 u"   clk  $end
$var wire      1 v"   arst_n  $end
$var wire     20 w"   din [19:0] $end
$var wire     20 x"   dout [19:0] $end
$var reg      20 y"   r [19:0] $end
$var reg      20 z"   nxt [19:0] $end
$upscope $end

$enddefinitions $end
$dumpvars
b0 t"
b10100 s"
b100 i"
b1000000 f"
b1000000 d"
b1000 W"
b111 V"
b110 U"
b100 T"
b11 S"
b10 R"
b1 Q"
b0 P"
b1000000 L"
b1000000 J"
b1001 H"
b101 G"
b1 F"
b10 E"
b110 D"
b111 C"
b1000 B"
b0 A"
b1000 ?"
b111 >"
b110 ="
b100 <"
b11 ;"
b10 :"
b1 9"
b0 8"
b10 7"
b1 6"
b0 5"
b100000 2"
b1000000 /"
b10 ."
b1 -"
b0 ,"
b100011 +"
b11 *"
b1101111 )"
b1100011 ("
b10011 '"
b110011 &"
b1 p!
b1 o!
b0 n!
b10000000 m!
b111 l!
b1000000 k!
b0 j!
b1 _!
b10000000 ^!
b0 ]!
b1010 Z!
b1 O!
b1 N!
b0 M!
b10000000 L!
b111 K!
b100000 J!
b0 I!
b1 >!
b10000000 =!
b0 <!
b1001 6!
b0 2!
b1000000 1!
b1000000 /!
b1000000 +!
b100 &!
b1000000 #!
b100011 "!
b11 !!
b1101111 ~
b1100011 }
b10011 |
b110011 {
b10000000 4
b10000000 2
b10000000 1
0!
0"
b0 #
0$
0%
b0 &
b0 '
0(
0)
b0 *
bx +
bx ,
0-
b110010 .
bx /
bx 0
bx 3
05
06
07
b0 8
09
0:
b0 ;
b0 <
0=
0>
b0 ?
x@
bx A
b100 B
b0 C
bx D
xE
xF
xG
xH
xI
xJ
xK
xL
xM
xN
xO
xP
xQ
xR
xS
xT
xU
xV
xW
xX
xY
xZ
x[
x\
x]
x^
x_
x`
xa
xb
xc
xd
bx e
bx f
xg
xh
xi
xj
xk
xl
xm
xn
bz o
bx p
bx q
bx r
bx s
bx t
bx u
bx v
bx w
bx x
bx y
bx z
b100 $!
b0 %!
bz '!
b100 (!
b100 )!
x*!
b100 ,!
x-!
b100 .!
b100 0!
b0 3!
b0 4!
b0 5!
07!
18!
b0 9!
bx :!
bx ;!
b0 ?!
b0 @!
0A!
0B!
bx C!
bx D!
1E!
1F!
0G!
1H!
1P!
0Q!
1R!
b0 S!
bx T!
1U!
1V!
1W!
b0 X!
bx Y!
bx [!
bx \!
bx `!
b0 a!
0b!
0c!
bx d!
bx e!
xf!
1g!
xh!
1i!
1q!
xr!
xs!
bx t!
bx u!
1v!
1w!
1x!
b0 y!
bx z!
bx {!
x|!
x}!
x~!
x!"
x""
x#"
x$"
x%"
bx 0"
bx 1"
b100000 3"
bx 4"
bx @"
bx I"
bx K"
bx M"
xN"
xO"
bx X"
bx Y"
bx Z"
bx ["
bx \"
bx ]"
bx ^"
bx _"
bx `"
xa"
xb"
xc"
bx e"
bx g"
bx h"
bx j"
bx k"
bx l"
bx m"
bx n"
xo"
b1010 p"
b0 q"
bx r"
zu"
zv"
bz w"
bx x"
bx y"
bx z"
$end
#5000
1!
15
b0 3"
b1 3"
b10 3"
b11 3"
b100 3"
b101 3"
b110 3"
b111 3"
b1000 3"
b1001 3"
b1010 3"
b1011 3"
b1100 3"
b1101 3"
b1110 3"
b1111 3"
b10000 3"
b10001 3"
b10010 3"
b10011 3"
b10100 3"
b10101 3"
b10110 3"
b10111 3"
b11000 3"
b11001 3"
b11010 3"
b11011 3"
b11100 3"
b11101 3"
b11110 3"
b11111 3"
b100000 3"
0U!
0P!
0v!
0q!
#10000
0!
b1 q"
05
1U!
1P!
1v!
1q!
#15000
1!
15
0U!
0P!
0v!
0q!
#20000
0!
b10 q"
05
1U!
1P!
1v!
1q!
#25000
1!
15
0U!
0P!
0v!
0q!
#30000
0!
b11 q"
05
1U!
1P!
1v!
1q!
#35000
1!
15
0U!
0P!
0v!
0q!
#40000
0!
b100 q"
05
1U!
1P!
1v!
1q!
#45000
1!
15
0U!
0P!
0v!
0q!
#50000
0!
b101 q"
05
1U!
1P!
1v!
1q!
#55000
1!
15
0U!
0P!
0v!
0q!
#60000
0!
b110 q"
05
1U!
1P!
1v!
1q!
#65000
1!
15
0U!
0P!
0v!
0q!
#70000
0!
b111 q"
05
1U!
1P!
1v!
1q!
#75000
1!
15
0U!
0P!
0v!
0q!
#80000
0!
b1000 q"
05
1U!
1P!
1v!
1q!
#85000
1!
15
0U!
0P!
0v!
0q!
#90000
0!
b1001 q"
05
1U!
1P!
1v!
1q!
#95000
1!
15
0U!
0P!
0v!
0q!
#100000
0!
b1010 q"
1"
b0 0
b1 0
b10 0
b11 0
b100 0
b101 0
b110 0
b111 0
b1000 0
b1001 0
b1010 0
b1011 0
b1100 0
b1101 0
b1110 0
b1111 0
b10000 0
b10001 0
b10010 0
b10011 0
b10100 0
b10101 0
b10110 0
b10111 0
b11000 0
b11001 0
b11010 0
b11011 0
b11100 0
b11101 0
b11110 0
b11111 0
b100000 0
b100001 0
b100010 0
b100011 0
b100100 0
b100101 0
b100110 0
b100111 0
b101000 0
b101001 0
b101010 0
b101011 0
b101100 0
b101101 0
b101110 0
b101111 0
b110000 0
b110001 0
b110010 0
b110011 0
b110100 0
b110101 0
b110110 0
b110111 0
b111000 0
b111001 0
b111010 0
b111011 0
b111100 0
b111101 0
b111110 0
b111111 0
b1000000 0
b1000001 0
b1000010 0
b1000011 0
b1000100 0
b1000101 0
b1000110 0
b1000111 0
b1001000 0
b1001001 0
b1001010 0
b1001011 0
b1001100 0
b1001101 0
b1001110 0
b1001111 0
b1010000 0
b1010001 0
b1010010 0
b1010011 0
b1010100 0
b1010101 0
b1010110 0
b1010111 0
b1011000 0
b1011001 0
b1011010 0
b1011011 0
b1011100 0
b1011101 0
b1011110 0
b1011111 0
b1100000 0
b1100001 0
b1100010 0
b1100011 0
b1100100 0
b1100101 0
b1100110 0
b1100111 0
b1101000 0
b1101001 0
b1101010 0
b1101011 0
b1101100 0
b1101101 0
b1101110 0
b1101111 0
b1110000 0
b1110001 0
b1110010 0
b1110011 0
b1110100 0
b1110101 0
b1110110 0
b1110111 0
b1111000 0
b1111001 0
b1111010 0
b1111011 0
b1111100 0
b1111101 0
b1111110 0
b1111111 0
b10000000 0
b0 q"
16
05
1U!
1P!
1v!
1q!
#105000
1!
15
b1 3"
b10 3"
b11 3"
b100 3"
b101 3"
b110 3"
b111 3"
b1000 3"
b1001 3"
b1010 3"
b1011 3"
b1100 3"
b1101 3"
b1110 3"
b1111 3"
b10000 3"
b10001 3"
b10010 3"
b10011 3"
b10100 3"
b10101 3"
b10110 3"
b10111 3"
b11000 3"
b11001 3"
b11010 3"
b11011 3"
b11100 3"
b11101 3"
b11110 3"
b11111 3"
b100000 3"
0U!
0P!
0v!
0q!
#110000
0!
b1 q"
05
1U!
1P!
1v!
1q!
#115000
1!
15
0U!
0P!
0v!
0q!
#120000
0!
b10 q"
05
1U!
1P!
1v!
1q!
#125000
1!
15
0U!
0P!
0v!
0q!
#130000
0!
b11 q"
05
1U!
1P!
1v!
1q!
#135000
1!
15
0U!
0P!
0v!
0q!
#140000
0!
b100 q"
05
1U!
1P!
1v!
1q!
#145000
1!
15
0U!
0P!
0v!
0q!
#150000
0!
b101 q"
05
1U!
1P!
1v!
1q!
#155000
1!
15
0U!
0P!
0v!
0q!
#160000
0!
b110 q"
05
1U!
1P!
1v!
1q!
#165000
1!
15
0U!
0P!
0v!
0q!
#170000
0!
b111 q"
05
1U!
1P!
1v!
1q!
#175000
1!
15
0U!
0P!
0v!
0q!
#180000
0!
b1000 q"
05
1U!
1P!
1v!
1q!
#185000
1!
15
0U!
0P!
0v!
0q!
#190000
0!
b1001 q"
05
1U!
1P!
1v!
1q!
#195000
1!
15
0U!
0P!
0v!
0q!
#200000
0!
b1010 q"
b0 0
1(
b1 *
b1 ?
1=
05
0g!
0i!
0w!
0x!
1U!
1P!
1v!
1q!
#205000
1!
b1 0
15
0U!
0P!
0v!
0q!
#210000
0!
b10 *
b1000 '
b1000 <
b10 ?
05
b1 a!
b1 y!
1U!
1P!
1v!
1q!
#215000
1!
b10 0
15
0U!
0P!
0v!
0q!
#220000
0!
b11 *
b10000 '
b10000 <
b11 ?
05
b10 a!
b10 y!
1U!
1P!
1v!
1q!
#225000
1!
b11 0
15
0U!
0P!
0v!
0q!
#230000
0!
b100 *
b11000 '
b11000 <
b100 ?
05
b11 a!
b11 y!
1U!
1P!
1v!
1q!
#235000
1!
b100 0
15
0U!
0P!
0v!
0q!
#240000
0!
b101 *
b100000 '
b100000 <
b101 ?
05
b100 a!
b100 y!
1U!
1P!
1v!
1q!
#245000
1!
b101 0
15
0U!
0P!
0v!
0q!
#250000
0!
b110 *
b101000 '
b101000 <
b110 ?
05
b101 a!
b101 y!
1U!
1P!
1v!
1q!
#255000
1!
b110 0
15
0U!
0P!
0v!
0q!
#260000
0!
b111 *
b110000 '
b110000 <
b111 ?
05
b110 a!
b110 y!
1U!
1P!
1v!
1q!
#265000
1!
b111 0
15
0U!
0P!
0v!
0q!
#270000
0!
b1000 *
b111000 '
b111000 <
b1000 ?
05
b111 a!
b111 y!
1U!
1P!
1v!
1q!
#275000
1!
b1000 0
15
0U!
0P!
0v!
0q!
#280000
0!
b1001 *
b1000000 '
b1000000 <
b1001 ?
05
b1000 a!
b1000 y!
1U!
1P!
1v!
1q!
#285000
1!
b1001 0
15
0U!
0P!
0v!
0q!
#290000
0!
b1010 *
b1001000 '
b1001000 <
b1010 ?
05
b1001 a!
b1001 y!
1U!
1P!
1v!
1q!
#295000
1!
b1010 0
15
0U!
0P!
0v!
0q!
#300000
0!
b0 *
b1010000 '
b1010000 <
b0 ?
05
b1010 a!
b1010 y!
1U!
1P!
1v!
1q!
#305000
1!
b1011 0
15
0U!
0P!
0v!
0q!
#310000
0!
b1011000 '
b1011000 <
05
b1011 a!
b1011 y!
1U!
1P!
1v!
1q!
#315000
1!
b1100 0
15
0U!
0P!
0v!
0q!
#320000
0!
b1100000 '
b1100000 <
05
b1100 a!
b1100 y!
1U!
1P!
1v!
1q!
#325000
1!
b1101 0
15
0U!
0P!
0v!
0q!
#330000
0!
b1101000 '
b1101000 <
05
b1101 a!
b1101 y!
1U!
1P!
1v!
1q!
#335000
1!
b1110 0
15
0U!
0P!
0v!
0q!
#340000
0!
b1110000 '
b1110000 <
05
b1110 a!
b1110 y!
1U!
1P!
1v!
1q!
#345000
1!
b1111 0
15
0U!
0P!
0v!
0q!
#350000
0!
b1111000 '
b1111000 <
05
b1111 a!
b1111 y!
1U!
1P!
1v!
1q!
#355000
1!
b10000 0
15
0U!
0P!
0v!
0q!
#360000
0!
b10000000 '
b10000000 <
05
b10000 a!
b10000 y!
1U!
1P!
1v!
1q!
#365000
1!
b10001 0
15
0U!
0P!
0v!
0q!
#370000
0!
b10001000 '
b10001000 <
05
b10001 a!
b10001 y!
1U!
1P!
1v!
1q!
#375000
1!
b10010 0
15
0U!
0P!
0v!
0q!
#380000
0!
b10010000 '
b10010000 <
05
b10010 a!
b10010 y!
1U!
1P!
1v!
1q!
#385000
1!
b10011 0
15
0U!
0P!
0v!
0q!
#390000
0!
b10011000 '
b10011000 <
05
b10011 a!
b10011 y!
1U!
1P!
1v!
1q!
#395000
1!
b10100 0
15
0U!
0P!
0v!
0q!
#400000
0!
b10100000 '
b10100000 <
05
b10100 a!
b10100 y!
1U!
1P!
1v!
1q!
#405000
1!
b10101 0
15
0U!
0P!
0v!
0q!
#410000
0!
b10101000 '
b10101000 <
05
b10101 a!
b10101 y!
1U!
1P!
1v!
1q!
#415000
1!
b10110 0
15
0U!
0P!
0v!
0q!
#420000
0!
b10110000 '
b10110000 <
05
b10110 a!
b10110 y!
1U!
1P!
1v!
1q!
#425000
1!
b10111 0
15
0U!
0P!
0v!
0q!
#430000
0!
b10111000 '
b10111000 <
05
b10111 a!
b10111 y!
1U!
1P!
1v!
1q!
#435000
1!
b11000 0
15
0U!
0P!
0v!
0q!
#440000
0!
b11000000 '
b11000000 <
05
b11000 a!
b11000 y!
1U!
1P!
1v!
1q!
#445000
1!
b11001 0
15
0U!
0P!
0v!
0q!
#450000
0!
b11001000 '
b11001000 <
05
b11001 a!
b11001 y!
1U!
1P!
1v!
1q!
#455000
1!
b11010 0
15
0U!
0P!
0v!
0q!
#460000
0!
b11010000 '
b11010000 <
05
b11010 a!
b11010 y!
1U!
1P!
1v!
1q!
#465000
1!
b11011 0
15
0U!
0P!
0v!
0q!
#470000
0!
b11011000 '
b11011000 <
05
b11011 a!
b11011 y!
1U!
1P!
1v!
1q!
#475000
1!
b11100 0
15
0U!
0P!
0v!
0q!
#480000
0!
b11100000 '
b11100000 <
05
b11100 a!
b11100 y!
1U!
1P!
1v!
1q!
#485000
1!
b11101 0
15
0U!
0P!
0v!
0q!
